{
  "stage1": {
    "url": "http://172.31.18.2:5601",
    "indexId": "dddb9eb0-9c3c-11ea-8807-4980d1833b64"
  },
  "stage2": {
    "url": "http://172.31.18.2:5601",
    "indexId": "cc34e1d0-9c3c-11ea-8807-4980d1833b64"
  },
  "stage3": {
    "url": "http://172.31.18.2:5601",
    "indexId": "a6c5e7a0-9c3c-11ea-8807-4980d1833b64"
  }
}